社團,指派,托顧,培植,報,七,審核,老人,語言,收取,配合,材料,正式,敏感度,全部,雙軌制,服務,網路,到場,量能,鑑定,經過,比,舊法,說明,權利,控制,合法,居服,管,就近,實支,補正,回國,既有,自審,80%,50,效率,身體,06,身分,細,專線,性質,新增型,診察,難以,隔離,設施,設定,一般,即可,（,討論,編號,開放,經費,49,加入,長照,平方公尺,證明書,前,4樓,自,泡茶,實施,視窗,位,共用,何時,向度,內政部,併同,採計,日照,內,設備,內聘,住在,臨床,後測,調查表,矯具,設立,風險,行動,BA13_,實務,服務法,破掉,醫發,價格,000萬,收容,B碼,CDR,將來,體適能,測,差異,藥師,BA18,CB03,背景,服務類,發展,訂定,確定,稀有,文化,C點,得,審查費,照專,卻,失智症,困擾,106年,AA01_,登入,BA04_,指領,亦,BA17_,省,職業,多,請,購置,口腔,只,抗拒,遴選,寫到,頻率,為,規定為,教育,津貼,統一,AA10_,明列,折半,長者,外,人力,可是,轉為,機車,居護,195,救援,替代,公用,更換,長輩,保障法,預定,上限,屬於,衛教,護理,請款,造成,現今,血,去,附件,機構,4萬,擇,人籍,包裹,就算,那,仍,統籌,AA06,權益,方案,額外,走動,只有,帶領,開案日,),第13,欲,8點,計畫,平均,踝足,這,事業,裡,唯氣墊床,輕度,設置,密集,領據,合併為,混班,聘僱,縣市政府,AA02,107年度,留任,LEVEL1,所屬,一直,摘要,公益,輔,令,BA09,算是,爬梯機,服務員,協調,學校,藥物,執業,外出,訪查,列,應,委託,備餐,之,基準,減輕,8,04,包含,這樣,第33,虧損,地目,簽證,中國,註銷,接收,對應,改裝,假日,家人,。,買,任,「,具體,提出,不同,機關,薪,搭配,國外,增核,教育部,使照,成立,公版,遷移,事項,登錄,表報,額,虞,清單,法律,聘請,身障,會計師,出具,缺乏,例如,應變,亞健康,內部,寢室,管子,倍,工作者,指,G7,付,檢討,各,要求,安排,受理,托員,需,准,規範,專,擦拭,戶數,提案,潛能,學員,計畫書,建造,全數,性別,並且,還,錯誤,連續,衣物,理事,餐飲,參加,陳,扣繳,領有,結果,BA04,戶籍地,合格,名稱,怎麼,筆,計算,至,陪同,顯,二樓,輔導會,而是,量表,回答,提撥,依法,由,洗腎,40,不,戶外,服員,列報,分項,比照,因,接,人事費,甘油球,第36,帳密,通知,社工師,代步車,在地,法源,助聽器,CD01限,什麼,到案,預期,巡視,訪視,固定,而,實際,超過,臨終,五,住宿型,跟接,回家,學分,支付,衝突,自提,期滿,金額,類,碰到,安養區,希望,遇,影響,而且,變更為,專員,？,天候,私立,鼓勵,願意,BD03,助理,年度,給,皆,心智,抽,罰則,調查,民營,輕,收據,現場,12點,植物人,依,違反,預防,可以,社政,方,反之,造,列表,平衡,得知,呢,須,現在,關節,一,申報,大便,第3,原住民族,每日,收入,地板,單獨,研議,上述,九,第5,傳染病,次數,AA01,投保,樓層,說,課程,人才,理由,月,知道,講師,部立,好,CD01_,辦,紀錄,僱請,銜接,確切,證照,若是,相同,耗費,開始,浴室,支領,明確,106年度,規模,公尺,哪些,無力,農地,過,及早,住院,陳情,健保,/,以前,模式,形成,全國性,外籍,收住,IADLs,入住,行為,查核,極,非,幫忙,法定義長,倘,當下,分類,立案,、,CD,照片,病歷,監事,使用率,百分之百,含,，,有些,<政府單位>,治療師,沒辦法,加成,情節,具,不需,規定,解散,表單,審查,近,慢性,計畫性,社工,福利,單指,醫療,著,收費,效期,AA03,覆核,分戶,隔間,颱風,很多,錢,發生,老福,定期式,大專院校,BA16_,述,第11,EA01_,保障,護理所,協助員,修法,"
1",操作,正當,短期,外勞,優先,經,何者,等級,類型,為限,5樓,傳統,自己,緊急,改採,六,爭議,並,急,等第,7,如此,長,做,人數,有效,原長,誰,階梯,對,法規,針對,疑慮,C碼_,停業,空間,第22,自有,避免,獨居,大學,縣,獨資,衰弱,需求,01,化痰機,法人,失去,元,寫,同,養護所,新設,BA18_,不動產,新法,逕行,測量,那些,外聘,BA11_,團體,屆期,惟,結束,實付,督考,獨立,被,為主,有待,BA12_,配置,政策,開立,低收,未滿,服務點,輔具,1月,單位,轉,"
2. ",申請,榮總,第2,CC01_,高齡,地點,長照法,建築,能力,6點,無,送審,餐,4,體檢,流理台,費用,…,長服,品質,往生,何處,住宿式,改制,肢體,氣墊座,責任,合作社,運用,安全,購買完,每,醫事,老,檢具,--,事實,如,困難,或,變動,也,過往,委員,開,循,換,於,依據,個人,合約,申請人,出席率,轉型,輸送,董事會,整合,若,細則,物理,都,樓,延續型,照,照護司,平常,解尿,其,登記,辦理,重組,3,營養師,BC01_,補發,聽到,具有,免費,中低收,衛生,二手,床數,今年,學歷,負責,公文,退出,領取,時數,民眾,價位,資格,未必,小型,測驗,病患,證明,技術,更名,八,種,幾,第二,80,AA04_,基金,BB01_,手冊,時,<持續>,標準,共計,去年,因應,易,不足,現行,單價,公告,保護,專科,簽訂,取得,體育署,專家,機能,特製,輔導,安樂死,指定,第6,有限,插尿管,BA14 ,接回,滿足,付錢,老五,-,系統,準則,BA09_,日,載具,接受,我們,不善,覺得,G碼_,完訓,管道,腳,指導,BA07,提到,子法,開辦,完成,解決,更新,喉頭鏡,必修,專業性,平台,就醫,獎助,落實,係指,分,累積,少,為之,程序,家,分配給,福利法,再次,即,函文,程式,申請書,此,管理,事,但,加,CA01 IADLs,防火,方便,家屬,到,人,結合,效益,資訊,GA06,智能,保存,本,包括,多餘,簽,衛福部,面臨,腎,必須,整體,期限,載,直轄市,改成,狀況,改變,用,購買,榮民,30,.,第4,許可,私人,職業類,目前,門檻,條,GA01_,綜合式,次,以利,定義,疾病,天,樓梯,9,入口,照服員,監察人,照護點,多少,又,）,重新,勘察,書寫,床位數,作為,指導員,洗頭,已,居住地,才,A,尤其,補助款,重大,",",a,呆滯,受,G4d,延緩,洗滌,意外,立即,恐怕,雇主,第五,沐浴,情況,始,建議,不再,額度制,定點,關於,醫藥,範圍,區分,任職,照顧,長期,安置,建築物,意思,繳費,指定為,族群,增列,重疊,十,過重,許多,認定,戶籍,減少,不變,編碼,承辦人,勾選,居住處,社區,如同,?,餐食,專章,7樓,BA17,總共,必,排除,滿意度,刪除,更改,派遣,設備費,考量,公共,部份,以,型,許可函,居住,縣市,89,其他,抽痰機,有關,教導,已經,擴增,呈現,公司,家務,之前,意見,涉及,擴大,某,6,華僑,養護床,積分,SOF,得到,扣除額,送到,BA22,契約書,來,中心,核准,就,期,主體,傳,格式,乙,驗證,捐贈,140,充足,論次,平版,下列,扣除,窘境,社,例假日,第1,租賃,沒有,點選,問題,BA20_,分為,經驗,分設,台北市,住宿,事先,參照,兩,台灣,簽約,120,國籍,沐浴車,選擇,法,或是,總額,10,逐條,為何,僵硬,以往,明定,類別,給付,負擔,簡化,共同,財產,檢附,BA15_,跟著,檢送,展延,失能,中央,制度,自行,未,BA12,何時報,陪伴,戶,供,核減,身心,附表,後,支援,乾燥,碼,優,版本,E5,款,環境,檢查,到底,歇業,人員,能,BA13,照護型,宅,限定,認可,CB02_,生活,標示,之間,安養院,癱瘓,小時,自徵,核,預設,H2b,指標,不行,個案,實地,代表,開班,免,離線,160,轉銜為,BA,C+,合併,等,防火門,跟,公所,傷口,照護,調降,加註,區域,核定,和,業務,未來,協會,使用,65,不併,永續,概況,SOF+IADL,填答,影本,最,了,損壞,勞動,想,國定,以上,專業,登打,對應到,：,抑或,詢問,聽說,訓練,通過,安養,畢業,則,公務,董事,1,在,000,國民,請問,公告長,專責,均,將,案家,視同,科系,<休憩區>,章程,目,過渡,快,向,先,同住,(,多元,辦法,辦公室,殘,清潔,我,辨識度,CB,完全,侵害,算,實行,彈性,無關節,確保,年,租用,輸入,算入,接送,可,只要,增至,廠商,不合,增列為,困難性,租期,管理人,中,名,包,師資,福利部,有所,塞劑,擦澡,年限,不便,有,→,態樣,廔口,整理,產生,維修,比率,健康,倒尿袋,間隔,適宜,走廊,聯絡,講義,顯示,改為,定,照管,AA09_,報告書,現階段,接續,聚會所,核定給,基本,G3,服務費,臺東,所謂,原有,鐘點費,宜,列入,350,管路,會,養護型,施行,若非,大掃除,多數,失,BA07_,職能,核銷,吞嚥,BD03_,下,以外,甚麼,執照,填寫,怎麼辦,連續戶,一般區,保健,會議,哪,醫師,變更,壓瘡,回歸,」,活動度,導致,或者,既然,層面,非法人,屬性,工作,排,面積,本部,榮譽,特別,前後測,延期,派案,章,住民,床位,小孩,右上角,復健,窗戶,急救,第一,復能,得以,餵食,清掉,組合限,原因,跌倒,BA01_,設有,何,與,罕見,關係,地區,評值,AA09,督導,分立,採,基金會,歲,長服法,5,註記,甲,:,轉銜,社會,市招,補報,資源,舉辦,三,確認,AA06_,納入,資料,雖,專門,BA01,出來,管理長,人口,是否,補助,臺中,課,除,措施,單項,收到,居服員,AA03_,30日,；,後續,第8,AA11_,復,第18,失智,養護,特定,讓,較,是,與否,公會,公設,如果,回饋,左右,鼻胃管,評估單,公分,分鐘,尚未,離島,擬定,送去,代理,那裡,行政,洗澡,列為,打掃,⻑期,喘息,目的,活動,流程,以下,條款,親屬,G4,不能,高,200,選,訂價,依賴,有異,衣服,簽到,還是,加總,公立,以後,輔助,僅有,獲得,氧氣,原住民,所在地區,簽定,提供者,對於,CC,設,期間,考慮,認定為,B碼_,100,訂,用到,篩檢,係,該,行業,安寧,穿脫,尿布,上,2,11,體重,參與,參,處理會,AA05,代表人,從事,憑單,特優,籌設,BA22_,效能,張,診所,自費,配比,必要,不一,溝通,單,小,協助,資本額,可否,<時間>,混合,但是,無法,保證金,證書,準備,碼_,分別,表決權,前後,交由,屬,同時,社區式,哪裡,標準表,控管,評估,ADLs,場地,作法,另外,16,GA03_,半,15日,DA01_,地方, ,之內,修正,. ,誤上,富,培訓,功能,107年,時間點,前者,展現,日間,額度,製造機,總結,下載,設立為,形式,領到,本身,剩餘,新制,BA16,經營,自然人,擴充,下棋,提供,抽血,第26,+,主管,禁止,他人,繳交,財務,策略,增訂,分院,視,E,CA01_,同址,很,宗教,因為,不予,聘,扣,BA02,12月,新案,制式,第9,遺失,預算,若要,異動,項目,培養,偏遠區,介入,多久,取消,看護工,提高,第14,運動,變好,“,填,組,租借,白皮書,除了,消防,薪資,洗,誦經,障礙,衛生所,內容,4PM-9PM,更,直接,03,死亡,送,<輔具>,時間,徵詢,天花板,及,另,程度,請照,_,定位,新增,意願,原鄉,看視,24,跳出,告知,臨時,建置,日前,H1e1,市,CA03,硬體,修補,安養床,夜間,為準,適用,第21,何謂,主辦,改選,成本,由於,注意,縫補,過程,全聯會,社員,約莫,護士,過去,里長,自殺,的,02,負責人,持有,還可以,認證,現有,特約,管理師,年資,情事,相,致,方向,老友,高度,居家式,對象,嗎,制定,解便,進食,需要,作業,跨,任期,診斷,選配,完畢,偏鄉,投入,總則,社家署,分身,查證,一般戶,前往,擔任,舉例,因素,進行,委任,編製,好幾,新北市,辦理長照,有無,支,範本,X,防治,師級,評鑑,請領,符合,維持,點,EG01_,來回,載明,達,醫院,所有,意念,級,增設,健檢,應該,委外,組合表,便秘,占床率,法人化,開課,個,加計,第,申辦,原,選項,Kihon Checklist,條件,項,清洗,牴觸,幢,服務期,會員,偏向,C,述明,部落,執行,僅,輔助性,承辦,2.0,機制,規劃,優等,日常,所,家訪,限,相關,文件,新,相應,導尿管,甲等,匯出,解除,而已,一致,四,全,據點,公有,抽油煙機,晚餐,核給,常,AA,窗口局處,類組,附設,抽吸,模組,醫療法,領,且,收,改善,若否,委員會,方式,週,情形,公學會,隔日,認為,部分,AA05_,銷售,外包,新版,之外,予,稱,床,何以,詳細,GA06_,財團,二,不得,核定函,EC09_,再,組合,臺中市,會計,保留,可能,偏遠,俗稱,教保員,裁罰,可行,契約,連結,如何,處理,身權法,表,核定日,”,交通,為什麼,開放題,重度,經濟,⻑,月報,1日,BA14,限制,班,一定,報備,並非,故,學者,論,宅維修,床距,方面,電動,總樓,就診,人民,報告,呼吸器,評分,真的,趟,臥床,要,ABC,當,歸屬,十三,者,能否,看護,照會,代,成為,家庭,居家,表示,種類,意見書,連任,區隔
[8.],[2.],[4.],[1.],[1.],[2.],[4.],[24.],[1.],[1.],[2.],[1.],[2.],[3.],[1.],[1.],[187.],[1.],[1.],[1.],[2.],[3.],[1.],[1.],[7.],[1.],[1.],[1.],[1.],[1.],[1.],[1.],[1.],[1.],[1.],[1.],[1.],[2.],[1.],[5.],[1.],[5.],[1.],[1.],[1.],[1.],[1.],[2.],[1.],[2.],[1.],[5.],[2.],[15.],[1.],[1.],[1.],[2.],[4.],[1.],[112.],[2.],[1.],[16.],[1.],[2.],[1.],[1.],[1.],[3.],[2.],[7.],[2.],[1.],[1.],[1.],[10.],[8.],[2.],[1.],[3.],[1.],[2.],[1.],[1.],[50.],[1.],[3.],[6.],[2.],[19.],[1.],[1.],[2.],[1.],[5.],[2.],[1.],[1.],[1.],[5.],[1.],[1.],[1.],[1.],[1.],[1.],[2.],[8.],[1.],[1.],[3.],[1.],[8.],[1.],[1.],[2.],[6.],[1.],[2.],[3.],[1.],[1.],[1.],[5.],[1.],[1.],[1.],[10.],[2.],[2.],[1.],[7.],[1.],[1.],[1.],[1.],[83.],[1.],[18.],[1.],[4.],[1.],[1.],[1.],[4.],[1.],[8.],[1.],[2.],[1.],[1.],[1.],[1.],[1.],[3.],[2.],[4.],[2.],[1.],[3.],[4.],[3.],[22.],[2.],[2.],[1.],[1.],[4.],[1.],[126.],[2.],[2.],[2.],[1.],[1.],[5.],[9.],[1.],[2.],[3.],[8.],[3.],[1.],[1.],[3.],[1.],[62.],[3.],[1.],[1.],[13.],[2.],[1.],[6.],[1.],[6.],[1.],[1.],[6.],[1.],[1.],[1.],[1.],[9.],[4.],[1.],[1.],[1.],[3.],[1.],[1.],[1.],[1.],[1.],[1.],[1.],[2.],[1.],[10.],[1.],[2.],[2.],[2.],[6.],[1.],[1.],[52.],[2.],[2.],[123.],[1.],[2.],[2.],[1.],[6.],[2.],[1.],[1.],[1.],[1.],[1.],[1.],[1.],[2.],[1.],[1.],[3.],[27.],[4.],[1.],[44.],[1.],[4.],[12.],[17.],[1.],[1.],[1.],[1.],[1.],[1.],[1.],[1.],[1.],[1.],[10.],[1.],[3.],[1.],[3.],[1.],[3.],[10.],[1.],[2.],[1.],[6.],[2.],[2.],[1.],[2.],[1.],[1.],[1.],[7.],[1.],[1.],[1.],[8.],[2.],[1.],[1.],[1.],[29.],[1.],[11.],[3.],[1.],[1.],[1.],[1.],[2.],[1.],[1.],[1.],[3.],[1.],[7.],[1.],[2.],[1.],[1.],[1.],[5.],[1.],[1.],[1.],[5.],[1.],[1.],[6.],[4.],[2.],[1.],[20.],[7.],[6.],[1.],[1.],[1.],[2.],[2.],[1.],[1.],[1.],[31.],[3.],[1.],[23.],[1.],[1.],[2.],[1.],[2.],[8.],[1.],[1.],[1.],[3.],[2.],[3.],[1.],[2.],[1.],[1.],[3.],[1.],[12.],[1.],[1.],[3.],[4.],[2.],[8.],[1.],[7.],[2.],[1.],[1.],[1.],[1.],[3.],[20.],[1.],[1.],[2.],[3.],[7.],[1.],[1.],[4.],[3.],[6.],[1.],[1.],[3.],[342.],[1.],[5.],[2.],[1.],[1.],[1.],[5.],[5.],[4.],[1.],[1.],[1.],[1.],[3.],[1.],[3.],[1.],[1.],[2.],[23.],[1.],[1.],[31.],[1.],[1.],[1.],[1.],[1.],[1.],[2.],[2.],[20.],[1.],[3.],[41.],[2.],[1.],[6.],[1.],[1.],[1.],[4.],[1.],[1.],[1.],[2.],[2.],[3.],[2.],[2.],[1.],[3.],[1.],[18.],[2.],[4.],[11.],[2.],[1.],[1.],[2.],[3.],[1.],[5.],[1.],[1.],[1.],[1.],[1.],[2.],[1.],[2.],[1.],[1.],[1.],[1.],[10.],[1.],[11.],[1.],[1.],[5.],[1.],[1.],[1.],[1.],[1.],[2.],[1.],[1.],[1.],[7.],[2.],[1.],[9.],[1.],[1.],[2.],[13.],[2.],[1.],[1.],[1.],[1.],[4.],[60.],[2.],[1.],[1.],[1.],[1.],[1.],[4.],[256.],[1.],[11.],[3.],[1.],[2.],[1.],[4.],[3.],[38.],[1.],[1.],[3.],[1.],[1.],[1.],[2.],[18.],[1.],[7.],[1.],[8.],[1.],[1.],[1.],[1.],[1.],[1.],[2.],[1.],[2.],[3.],[2.],[1.],[1.],[1.],[1.],[1.],[1.],[1.],[1.],[1.],[1.],[2.],[1.],[2.],[1.],[1.],[5.],[1.],[2.],[1.],[1.],[1.],[1.],[1.],[4.],[1.],[1.],[2.],[4.],[1.],[1.],[2.],[1.],[16.],[6.],[3.],[1.],[1.],[6.],[1.],[7.],[3.],[5.],[2.],[1.],[1.],[5.],[3.],[1.],[1.],[1.],[1.],[2.],[1.],[4.],[9.],[3.],[1.],[28.],[1.],[4.],[2.],[9.],[1.],[1.],[1.],[3.],[1.],[1.],[1.],[2.],[1.],[1.],[6.],[2.],[4.],[1.],[1.],[2.],[1.],[1.],[1.],[1.],[1.],[2.],[1.],[2.],[1.],[3.],[3.],[44.],[2.],[54.],[1.],[1.],[79.],[3.],[7.],[1.],[1.],[4.],[1.],[1.],[2.],[1.],[15.],[1.],[1.],[3.],[1.],[1.],[12.],[5.],[1.],[3.],[1.],[1.],[18.],[1.],[2.],[1.],[2.],[1.],[1.],[6.],[1.],[13.],[10.],[2.],[1.],[1.],[1.],[40.],[3.],[73.],[1.],[9.],[1.],[5.],[1.],[1.],[2.],[28.],[4.],[6.],[1.],[3.],[5.],[1.],[1.],[1.],[2.],[27.],[2.],[3.],[7.],[2.],[1.],[22.],[2.],[1.],[1.],[23.],[5.],[25.],[1.],[14.],[2.],[1.],[4.],[1.],[4.],[1.],[1.],[3.],[1.],[3.],[1.],[1.],[3.],[1.],[1.],[1.],[3.],[11.],[1.],[18.],[1.],[6.],[2.],[1.],[8.],[1.],[1.],[3.],[6.],[4.],[3.],[1.],[2.],[2.],[3.],[3.],[13.],[23.],[17.],[1.],[1.],[1.],[1.],[5.],[18.],[1.],[5.],[1.],[1.],[2.],[5.],[1.],[1.],[6.],[1.],[1.],[1.],[4.],[2.],[1.],[1.],[1.],[1.],[1.],[2.],[1.],[1.],[7.],[1.],[1.],[6.],[7.],[18.],[1.],[1.],[1.],[1.],[1.],[3.],[1.],[1.],[1.],[2.],[5.],[1.],[7.],[1.],[1.],[1.],[1.],[1.],[6.],[2.],[1.],[1.],[1.],[3.],[1.],[1.],[1.],[5.],[18.],[1.],[4.],[1.],[7.],[1.],[1.],[1.],[5.],[15.],[2.],[12.],[1.],[1.],[1.],[1.],[2.],[9.],[15.],[1.],[1.],[4.],[1.],[1.],[1.],[17.],[9.],[1.],[1.],[2.],[1.],[2.],[1.],[2.],[2.],[1.],[2.],[1.],[2.],[2.],[4.],[3.],[2.],[4.],[6.],[3.],[17.],[3.],[1.],[6.],[1.],[26.],[1.],[7.],[10.],[1.],[5.],[1.],[5.],[2.],[2.],[1.],[5.],[2.],[1.],[6.],[15.],[15.],[4.],[1.],[1.],[1.],[2.],[5.],[3.],[24.],[2.],[9.],[2.],[1.],[2.],[1.],[2.],[1.],[1.],[7.],[1.],[1.],[1.],[1.],[2.],[1.],[3.],[1.],[3.],[2.],[1.],[13.],[2.],[1.],[1.],[1.],[1.],[2.],[1.],[1.],[91.],[52.],[4.],[3.],[2.],[2.],[1.],[3.],[1.],[1.],[4.],[1.],[1.],[9.],[1.],[2.],[1.],[1.],[1.],[3.],[1.],[7.],[2.],[103.],[1.],[2.],[1.],[1.],[1.],[1.],[2.],[1.],[2.],[1.],[1.],[1.],[2.],[1.],[1.],[14.],[2.],[4.],[1.],[6.],[1.],[12.],[1.],[19.],[1.],[3.],[3.],[1.],[4.],[1.],[5.],[2.],[1.],[1.],[1.],[5.],[1.],[2.],[7.],[1.],[2.],[5.],[1.],[2.],[1.],[4.],[18.],[3.],[10.],[3.],[1.],[2.],[2.],[1.],[2.],[1.],[1.],[1.],[1.],[1.],[1.],[2.],[1.],[1.],[1.],[3.],[3.],[13.],[1.],[7.],[1.],[2.],[2.],[1.],[1.],[2.],[2.],[2.],[9.],[1.],[3.],[2.],[1.],[2.],[4.],[3.],[4.],[1.],[1.],[1.],[11.],[1.],[2.],[1.],[3.],[24.],[9.],[2.],[1.],[1.],[2.],[1.],[1.],[1.],[1.],[10.],[8.],[1.],[6.],[17.],[2.],[1.],[3.],[1.],[2.],[1.],[14.],[1.],[28.],[2.],[1.],[2.],[1.],[1.],[1.],[6.],[8.],[1.],[1.],[1.],[41.],[22.],[3.],[2.],[2.],[3.],[4.],[1.],[4.],[1.],[1.],[1.],[1.],[6.],[1.],[2.],[1.],[1.],[1.],[1.],[58.],[2.],[4.],[12.],[3.],[1.],[1.],[7.],[8.],[1.],[3.],[11.],[1.],[3.],[1.],[2.],[15.],[1.],[2.],[3.],[15.],[10.],[10.],[10.],[1.],[31.],[1.],[1.],[1.],[1.],[1.],[1.],[1.],[1.],[6.],[1.],[1.],[3.],[1.],[10.],[22.],[3.],[1.],[8.],[1.],[1.],[1.],[17.],[4.],[4.],[1.],[4.],[1.],[4.],[15.],[36.],[1.],[3.],[35.],[1.],[1.],[2.],[9.],[7.],[2.],[1.],[1.],[1.],[1.],[1.],[1.],[5.],[9.],[1.],[62.],[3.],[21.],[1.],[1.],[4.],[6.],[1.],[1.],[2.],[1.],[6.],[1.],[1.],[1.],[1.],[14.],[3.],[3.],[1.],[6.],[50.],[3.],[1.],[1.],[1.],[1.],[1.],[1.],[1.],[18.],[1.],[1.],[9.],[3.],[1.],[1.],[1.],[2.],[3.],[81.],[1.],[1.],[1.],[1.],[1.],[2.],[1.],[2.],[1.],[1.],[1.],[1.],[1.],[1.],[1.],[3.],[3.],[4.],[2.],[3.],[1.],[2.],[1.],[2.],[2.],[1.],[4.],[1.],[1.],[2.],[3.],[3.],[1.],[1.],[2.],[18.],[2.],[13.],[1.],[1.],[1.],[3.],[2.],[2.],[9.],[1.],[1.],[5.],[3.],[1.],[1.],[1.],[4.],[1.],[1.],[1.],[1.],[9.],[6.],[7.],[2.],[2.],[44.],[1.],[1.],[1.],[1.],[1.],[1.],[2.],[4.],[1.],[6.],[1.],[2.],[8.],[1.],[1.],[1.],[1.],[7.],[3.],[1.],[1.],[5.],[1.],[1.],[4.],[3.],[2.],[1.],[1.],[1.],[2.],[1.],[3.],[2.],[50.],[34.],[1.],[4.],[6.],[1.],[1.],[1.],[1.],[3.],[2.],[3.],[5.],[2.],[2.],[1.],[1.],[3.],[4.],[1.],[2.],[14.],[1.],[5.],[2.],[1.],[4.],[9.],[1.],[1.],[2.],[1.],[1.],[1.],[149.],[31.],[1.],[1.],[2.],[4.],[1.],[3.],[3.],[3.],[1.],[1.],[3.],[1.],[2.],[1.],[2.],[6.],[1.],[3.],[1.],[1.],[44.],[1.],[1.],[3.],[11.],[1.],[1.],[1.],[1.],[2.],[3.],[3.],[1.],[2.],[1.],[1.],[1.],[1.],[1.],[2.],[1.],[4.],[12.],[3.],[6.],[5.],[4.],[1.],[1.],[1.],[6.],[4.],[5.],[2.],[1.],[1.],[1.],[1.],[1.],[8.],[1.],[2.],[1.],[1.],[1.],[1.],[1.],[1.],[1.],[1.],[2.],[4.],[1.],[6.],[5.],[1.],[1.],[3.],[1.],[2.],[1.],[2.],[5.],[27.],[1.],[1.],[1.],[2.],[11.],[13.],[1.],[1.],[5.],[1.],[2.],[1.],[3.],[1.],[1.],[1.],[6.],[3.],[1.],[1.],[1.],[2.],[1.],[1.],[2.],[1.],[1.],[6.],[13.],[1.],[37.],[3.],[2.],[2.],[10.],[1.],[2.],[3.],[7.],[6.],[1.],[5.],[1.],[2.],[12.],[8.],[2.],[1.],[2.],[27.],[2.],[2.],[1.],[3.],[2.],[1.],[4.],[1.],[1.],[13.],[11.],[1.],[2.],[1.],[1.],[1.],[4.],[1.],[6.],[1.],[1.],[1.],[8.],[16.],[1.],[1.],[1.],[3.],[1.],[1.],[4.],[1.],[5.],[1.],[3.],[2.],[8.],[1.],[35.],[2.],[1.],[1.],[17.],[1.],[1.],[1.],[1.],[1.],[1.],[2.],[1.],[4.],[3.],[1.],[1.],[1.],[1.],[2.],[1.],[1.],[2.],[1.],[2.],[1.],[2.],[1.],[1.],[1.],[1.],[15.],[1.],[1.],[6.],[4.],[1.],[7.],[1.],[1.],[2.],[1.],[3.],[1.],[2.],[1.],[1.],[1.],[2.],[2.],[3.],[1.],[25.],[3.],[9.],[1.],[2.],[5.],[1.],[3.],[2.],[6.],[8.],[1.],[2.],[83.],[11.],[1.],[1.],[29.],[1.],[5.],[1.],[1.],[1.],[1.],[1.],[1.],[2.],[1.],[1.],[1.],[2.],[1.],[1.],[1.],[1.],[1.],[1.],[12.],[1.],[5.],[1.],[1.],[1.],[1.],[2.],[1.],[1.],[1.],[6.],[1.],[1.],[3.],[1.],[1.],[109.],[4.],[18.],[1.],[1.],[12.],[2.],[19.],[1.],[1.],[1.],[1.],[3.],[2.],[1.],[1.],[8.],[8.],[49.],[2.],[1.],[1.],[25.],[1.],[1.],[2.],[2.],[1.],[1.],[2.],[1.],[23.],[1.],[1.],[1.],[1.],[1.],[9.],[1.],[1.],[11.],[1.],[1.],[1.],[1.],[2.],[1.],[1.],[2.],[1.],[2.],[2.],[13.],[3.],[9.],[2.],[5.],[1.],[1.],[3.],[5.],[5.],[1.],[1.],[7.],[4.],[1.],[1.],[1.],[2.],[1.],[1.],[1.],[2.],[22.],[3.],[1.],[1.],[6.],[3.],[2.],[6.],[24.],[1.],[2.],[1.],[1.],[2.],[1.],[4.],[1.],[1.],[7.],[4.],[1.],[2.],[6.],[6.],[7.],[1.],[1.],[17.],[1.],[1.],[18.],[3.],[8.],[1.],[1.],[1.],[2.],[1.],[1.],[1.],[3.],[6.],[4.],[3.],[1.],[1.],[2.],[2.],[3.],[1.],[2.],[5.],[1.],[3.],[1.],[1.],[9.],[1.],[6.],[1.],[1.],[11.],[2.],[4.],[1.],[1.],[1.],[16.],[1.],[1.],[1.],[2.],[1.],[2.],[3.],[8.],[1.],[1.],[1.],[7.],[3.],[3.],[1.],[1.],[8.],[9.],[3.],[1.],[2.],[3.],[2.],[1.],[1.],[2.],[1.],[4.],[3.],[81.],[11.],[1.],[3.],[1.],[3.],[7.],[2.],[1.],[5.],[1.],[1.],[1.],[2.],[1.],[10.],[1.],[5.],[1.],[1.],[3.],[1.],[1.],[1.],[1.],[1.],[2.],[2.],[1.],[1.],[4.],[3.],[2.],[1.],[1.],[1.],[30.],[1.],[2.],[1.],[2.],[43.],[8.],[3.],[2.],[1.],[1.],[13.],[35.],[1.],[1.],[3.],[1.],[1.]
